<svg width="34" height="18" viewBox="0 0 34 18" fill="none" xmlns="http://www.w3.org/2000/svg">
<rect x="0.5" y="0.5" width="33" height="15" rx="3.5" fill="#03C04A" stroke="white"/>
<path d="M5.55127 12V4H7.24268V10.6055H10.6724V12H5.55127ZM13.4839 4V12H11.7925V4H13.4839ZM16.3208 4L18.2544 10.0781H18.3286L20.2661 4H22.1411L19.3833 12H17.2036L14.4419 4H16.3208ZM23.104 12V4H28.4946V5.39453H24.7954V7.30078H28.2173V8.69531H24.7954V10.6055H28.5103V12H23.104Z" fill="white"/>
</svg>
